%YAML 1.1
%TAG !u! tag:unity3d.com,2011:
--- !u!114 &11400000
MonoBehaviour:
  m_ObjectHideFlags: 0
  m_CorrespondingSourceObject: {fileID: 0}
  m_PrefabInternal: {fileID: 0}
  m_GameObject: {fileID: 0}
  m_Enabled: 1
  m_EditorHideFlags: 0
  m_Script: {fileID: 11500000, guid: 169f15a758b8ce54690b277683a0f54b, type: 3}
  m_Name: AssaultRifleBullets
  m_EditorClassIdentifier: 
  itemName: Assault rifle ammo
  index: 7
  icon: {fileID: 21300000, guid: 7c5716290e60c5942867e77d26d1bab4, type: 3}
  weight: 0.1
  item: 1
  stash: 40
  audioClip: {fileID: 0}
  speed: 100
  maxTime: 5
  damage: 35
