%YAML 1.1
%TAG !u! tag:unity3d.com,2011:
--- !u!114 &11400000
MonoBehaviour:
  m_ObjectHideFlags: 0
  m_CorrespondingSourceObject: {fileID: 0}
  m_PrefabInternal: {fileID: 0}
  m_GameObject: {fileID: 0}
  m_Enabled: 1
  m_EditorHideFlags: 0
  m_Script: {fileID: 11500000, guid: 03444d50a5d32c54196c278fba9245d2, type: 3}
  m_Name: Fists
  m_EditorClassIdentifier: 
  itemName: Fists
  index: 10
  icon: {fileID: 21300000, guid: f79f5076c20fe1845a9755e382caeee1, type: 3}
  weight: 0
  item: 4
  stash: 1
  audioClip: {fileID: 0}
  meleeType: 0
  cooldown: 1.2
  BreakResistance: Infinity
  damage: 25
  meleeSounds: []
