%YAML 1.1
%TAG !u! tag:unity3d.com,2011:
--- !u!114 &11400000
MonoBehaviour:
  m_ObjectHideFlags: 0
  m_CorrespondingSourceObject: {fileID: 0}
  m_PrefabInternal: {fileID: 0}
  m_GameObject: {fileID: 0}
  m_Enabled: 1
  m_EditorHideFlags: 0
  m_Script: {fileID: 11500000, guid: dbdced2cd4eb5ff4eb7d211ba107c8e4, type: 3}
  m_Name: BossEnemy
  m_EditorClassIdentifier: 
  enemyName: Tank Zombie
  damage: 70
  speed: 4
  health: 10000
  EnemyVision: 30
  fOV: 50
  attackDistance: 4
  minimumDistancePatrolPoint: 2
  waitTime: 3
  attackResetTime: 4
