%YAML 1.1
%TAG !u! tag:unity3d.com,2011:
--- !u!114 &11400000
MonoBehaviour:
  m_ObjectHideFlags: 0
  m_CorrespondingSourceObject: {fileID: 0}
  m_PrefabInternal: {fileID: 0}
  m_GameObject: {fileID: 0}
  m_Enabled: 1
  m_EditorHideFlags: 0
  m_Script: {fileID: 11500000, guid: 89dc1ab4f371b4b41b4c87e4bdcb7f18, type: 3}
  m_Name: Chemic2
  m_EditorClassIdentifier: 
  itemName: Chemic
  index: 14
  icon: {fileID: 21300000, guid: b45612319429b304f908c49c50736d5e, type: 3}
  weight: 1
  item: 7
  stash: 1
  audioClip: {fileID: 0}
  level: 5
