%YAML 1.1
%TAG !u! tag:unity3d.com,2011:
--- !u!114 &11400000
MonoBehaviour:
  m_ObjectHideFlags: 0
  m_CorrespondingSourceObject: {fileID: 0}
  m_PrefabInternal: {fileID: 0}
  m_GameObject: {fileID: 0}
  m_Enabled: 1
  m_EditorHideFlags: 0
  m_Script: {fileID: 11500000, guid: 8cefac2cb4e9ba2498fdfc2a53dd7ef5, type: 3}
  m_Name: Note4
  m_EditorClassIdentifier: 
  itemName: No se usa
  index: 3
  icon: {fileID: 21300000, guid: 0a7353098dc1bcd48a4724247bf23e9b, type: 3}
  weight: 0
  item: 3
  stash: 1
  audioClip: {fileID: 8300000, guid: 75e3815ea0b787d4dbf323459b2bdf0d, type: 3}
  noteText: Si no me salvo te dejo un quimico que sirve para matarlos. No quise usarlos
    porque crei que puedo salvarlos
  level: -1
  keyAddress: 
